<?xml version="1.0" encoding="UTF-8" standalone="no"?>
<!-- Created with Inkscape (http://www.inkscape.org/) -->
<svg xmlns:dc="http://purl.org/dc/elements/1.1/" xmlns:cc="http://creativecommons.org/ns#" xmlns:rdf="http://www.w3.org/1999/02/22-rdf-syntax-ns#" xmlns:svg="http://www.w3.org/2000/svg" xmlns="http://www.w3.org/2000/svg" xmlns:sodipodi="http://sodipodi.sourceforge.net/DTD/sodipodi-0.dtd" xmlns:inkscape="http://www.inkscape.org/namespaces/inkscape" width="329.61615mm" height="128.09282mm" viewBox="0 0 1167.9312 453.87219" id="svg2" version="1.1" inkscape:version="0.91 r13725" sodipodi:docname="RT2.svg">
  <defs id="defs4">
    <marker inkscape:isstock="true" style="overflow:visible" id="marker6489" refX="0" refY="0" orient="auto" inkscape:stockid="TriangleOutM">
      <path transform="scale(0.4,0.4)" style="fill:#000000;fill-opacity:1;fill-rule:evenodd;stroke:#000000;stroke-width:1pt;stroke-opacity:1" d="m 5.77,0 -8.65,5 0,-10 8.65,5 z" id="path6491" inkscape:connector-curvature="0"/>
    </marker>
    <marker inkscape:stockid="TriangleOutM" orient="auto" refY="0" refX="0" id="TriangleOutM" style="overflow:visible" inkscape:isstock="true" inkscape:collect="always">
      <path id="path4360" d="m 5.77,0 -8.65,5 0,-10 8.65,5 z" style="fill:#000000;fill-opacity:1;fill-rule:evenodd;stroke:#000000;stroke-width:1pt;stroke-opacity:1" transform="scale(0.4,0.4)" inkscape:connector-curvature="0"/>
    </marker>
    <marker inkscape:stockid="Arrow2Mend" orient="auto" refY="0" refX="0" id="marker4491" style="overflow:visible" inkscape:isstock="true">
      <path id="path4493" style="fill:#000000;fill-opacity:1;fill-rule:evenodd;stroke:#000000;stroke-width:0.625;stroke-linejoin:round;stroke-opacity:1" d="M 8.7185878,4.0337352 -2.2072895,0.01601326 8.7185884,-4.0017078 c -1.7454984,2.3720609 -1.7354408,5.6174519 -6e-7,8.035443 z" transform="scale(-0.6,-0.6)" inkscape:connector-curvature="0"/>
    </marker>
    <marker inkscape:stockid="Arrow2Mend" orient="auto" refY="0" refX="0" id="Arrow2Mend" style="overflow:visible" inkscape:isstock="true">
      <path id="path4242" style="fill:#000000;fill-opacity:1;fill-rule:evenodd;stroke:#000000;stroke-width:0.625;stroke-linejoin:round;stroke-opacity:1" d="M 8.7185878,4.0337352 -2.2072895,0.01601326 8.7185884,-4.0017078 c -1.7454984,2.3720609 -1.7354408,5.6174519 -6e-7,8.035443 z" transform="scale(-0.6,-0.6)" inkscape:connector-curvature="0"/>
    </marker>
    <marker inkscape:stockid="TriangleOutM" orient="auto" refY="0" refX="0" id="TriangleOutM-1" style="overflow:visible" inkscape:isstock="true">
      <path inkscape:connector-curvature="0" id="path4360-6" d="m 5.77,0 -8.65,5 0,-10 8.65,5 z" style="fill:#000000;fill-opacity:1;fill-rule:evenodd;stroke:#000000;stroke-width:1pt;stroke-opacity:1" transform="scale(0.4,0.4)"/>
    </marker>
    <marker inkscape:stockid="TriangleOutM" orient="auto" refY="0" refX="0" id="TriangleOutM-1-8" style="overflow:visible" inkscape:isstock="true">
      <path inkscape:connector-curvature="0" id="path4360-6-3" d="m 5.77,0 -8.65,5 0,-10 8.65,5 z" style="fill:#000000;fill-opacity:1;fill-rule:evenodd;stroke:#000000;stroke-width:1pt;stroke-opacity:1" transform="scale(0.4,0.4)"/>
    </marker>
    <marker inkscape:stockid="TriangleOutM" orient="auto" refY="0" refX="0" id="TriangleOutM-1-8-2" style="overflow:visible" inkscape:isstock="true">
      <path inkscape:connector-curvature="0" id="path4360-6-3-7" d="m 5.77,0 -8.65,5 0,-10 8.65,5 z" style="fill:#000000;fill-opacity:1;fill-rule:evenodd;stroke:#000000;stroke-width:1pt;stroke-opacity:1" transform="scale(0.4,0.4)"/>
    </marker>
    <marker inkscape:stockid="TriangleOutM" orient="auto" refY="0" refX="0" id="TriangleOutM-1-1" style="overflow:visible" inkscape:isstock="true">
      <path inkscape:connector-curvature="0" id="path4360-6-5" d="m 5.77,0 -8.65,5 0,-10 8.65,5 z" style="fill:#000000;fill-opacity:1;fill-rule:evenodd;stroke:#000000;stroke-width:1pt;stroke-opacity:1" transform="scale(0.4,0.4)"/>
    </marker>
    <marker inkscape:stockid="TriangleOutM" orient="auto" refY="0" refX="0" id="TriangleOutM-1-0" style="overflow:visible" inkscape:isstock="true">
      <path inkscape:connector-curvature="0" id="path4360-6-2" d="m 5.77,0 -8.65,5 0,-10 8.65,5 z" style="fill:#000000;fill-opacity:1;fill-rule:evenodd;stroke:#000000;stroke-width:1pt;stroke-opacity:1" transform="scale(0.4,0.4)"/>
    </marker>
    <marker inkscape:stockid="TriangleOutM" orient="auto" refY="0" refX="0" id="TriangleOutM-1-1-8" style="overflow:visible" inkscape:isstock="true">
      <path inkscape:connector-curvature="0" id="path4360-6-5-2" d="m 5.77,0 -8.65,5 0,-10 8.65,5 z" style="fill:#000000;fill-opacity:1;fill-rule:evenodd;stroke:#000000;stroke-width:1pt;stroke-opacity:1" transform="scale(0.4,0.4)"/>
    </marker>
  </defs>
  <sodipodi:namedview id="base" pagecolor="#ffffff" bordercolor="#666666" borderopacity="1.0" inkscape:pageopacity="0.0" inkscape:pageshadow="2" inkscape:zoom="0.7" inkscape:cx="757.6267" inkscape:cy="310.18085" inkscape:document-units="px" inkscape:current-layer="layer1" showgrid="false" showguides="true" inkscape:guide-bbox="true" inkscape:snap-bbox="true" inkscape:snap-bbox-midpoints="true" inkscape:snap-bbox-edge-midpoints="true" inkscape:bbox-nodes="true" inkscape:object-paths="true" inkscape:snap-intersection-paths="true" inkscape:object-nodes="true" inkscape:snap-smooth-nodes="true" inkscape:window-width="1918" inkscape:window-height="1004" inkscape:window-x="1920" inkscape:window-y="24" inkscape:window-maximized="1" fit-margin-top="0" fit-margin-left="0" fit-margin-right="0" fit-margin-bottom="0">
    <sodipodi:guide position="808.53635,275.24119" orientation="0,1" id="guide4159"/>
    <sodipodi:guide position="991.80019,275.24118" orientation="1,0" id="guide4207"/>
    <sodipodi:guide position="178.63103,275.24118" orientation="1,0" id="guide6479"/>
  </sodipodi:namedview>
  <metadata id="metadata7">
    <rdf:RDF>
      <cc:Work rdf:about="">
        <dc:format>image/svg+xml</dc:format>
        <dc:type rdf:resource="http://purl.org/dc/dcmitype/StillImage"/>
        <dc:title/>
      </cc:Work>
    </rdf:RDF>
  </metadata>
  <g inkscape:label="Layer 1" inkscape:groupmode="layer" id="layer1" transform="translate(436.80026,-245.4163)">
    <rect style="fill:none;fill-opacity:1;stroke:#000000;stroke-width:2.80069566;stroke-linecap:square;stroke-miterlimit:4;stroke-dasharray:none;stroke-dashoffset:0;stroke-opacity:1" id="rect4136" width="148.32468" height="96.303703" x="-78.137825" y="375.89548"/>
    <text xml:space="preserve" style="font-style:normal;font-weight:normal;font-size:40px;line-height:125%;font-family:Sans;letter-spacing:0px;word-spacing:0px;fill:#000000;fill-opacity:1;stroke:none;stroke-width:1px;stroke-linecap:butt;stroke-linejoin:miter;stroke-opacity:1" x="-43.389545" y="436.5864" id="text4161" sodipodi:linespacing="125%"><tspan sodipodi:role="line" id="tspan4163" x="-43.389545" y="436.5864">K(s)</tspan></text>
    <rect style="fill:none;fill-opacity:1;stroke:#000000;stroke-width:2.80069566;stroke-linecap:square;stroke-miterlimit:4;stroke-dasharray:none;stroke-dashoffset:0;stroke-opacity:1" id="rect4136-8" width="148.32468" height="96.303703" x="228.4043" y="375.89548"/>
    <text xml:space="preserve" style="font-style:normal;font-weight:normal;font-size:40px;line-height:125%;font-family:Sans;letter-spacing:0px;word-spacing:0px;fill:#000000;fill-opacity:1;stroke:none;stroke-width:1px;stroke-linecap:butt;stroke-linejoin:miter;stroke-opacity:1" x="263.15256" y="436.58636" id="text4161-6" sodipodi:linespacing="125%"><tspan sodipodi:role="line" id="tspan4163-5" x="263.15256" y="436.58636">G(s)</tspan></text>
    <circle style="fill:none;fill-opacity:1;stroke:#000000;stroke-width:5;stroke-linecap:square;stroke-miterlimit:4;stroke-dasharray:none;stroke-dashoffset:0;stroke-opacity:1" id="path4205" cx="555" cy="424.04733" r="20.714285"/>
    <path style="fill:none;fill-rule:evenodd;stroke:#000000;stroke-width:5;stroke-linecap:butt;stroke-linejoin:miter;stroke-miterlimit:4;stroke-dasharray:none;stroke-opacity:1;marker-end:url(#TriangleOutM)" d="m 555,245.4163 0,141.37897" id="path4209" inkscape:connector-curvature="0"/>
    <path style="fill:none;fill-rule:evenodd;stroke:#000000;stroke-width:5;stroke-linecap:butt;stroke-linejoin:miter;stroke-miterlimit:4;stroke-dasharray:none;stroke-opacity:1;marker-end:url(#TriangleOutM-1)" d="m 71.587203,424.04732 141.378967,0" id="path4209-0" inkscape:connector-curvature="0"/>
    <path style="fill:none;fill-rule:evenodd;stroke:#000000;stroke-width:5;stroke-linecap:butt;stroke-linejoin:miter;stroke-miterlimit:4;stroke-dasharray:none;stroke-opacity:1;marker-end:url(#TriangleOutM-1-8)" d="m 376.36896,424.04733 141.37897,0" id="path4209-0-9" inkscape:connector-curvature="0"/>
    <circle style="fill:none;fill-opacity:1;stroke:#000000;stroke-width:5;stroke-linecap:square;stroke-miterlimit:4;stroke-dasharray:none;stroke-dashoffset:0;stroke-opacity:1" id="path4205-4" cx="-258.16922" cy="424.04733" r="20.714285"/>
    <path style="fill:none;fill-rule:evenodd;stroke:#000000;stroke-width:5;stroke-linecap:butt;stroke-linejoin:miter;stroke-miterlimit:4;stroke-dasharray:none;stroke-opacity:1;marker-end:url(#TriangleOutM-1-1)" d="m -234.95492,424.04733 141.378967,0" id="path4209-0-0" inkscape:connector-curvature="0"/>
    <path style="fill:none;fill-rule:evenodd;stroke:#000000;stroke-width:5;stroke-linecap:butt;stroke-linejoin:miter;stroke-miterlimit:4;stroke-dasharray:none;stroke-opacity:1;marker-end:url(#TriangleOutM-1-0)" d="m 575.71428,424.04732 141.37897,0" id="path4209-0-5" inkscape:connector-curvature="0"/>
    <path style="fill:none;fill-rule:evenodd;stroke:#000000;stroke-width:5;stroke-linecap:butt;stroke-linejoin:miter;stroke-miterlimit:4;stroke-dasharray:none;stroke-opacity:1;marker-end:url(#marker6489)" d="m 652.55854,424.04732 0,272.74119 -910.72776,0 0,-247.67678" id="path6481" inkscape:connector-curvature="0"/>
    <path style="fill:none;fill-rule:evenodd;stroke:#000000;stroke-width:5;stroke-linecap:butt;stroke-linejoin:miter;stroke-miterlimit:4;stroke-dasharray:none;stroke-opacity:1;marker-end:url(#TriangleOutM-1-1-8)" d="m -436.80026,424.04733 141.37897,0" id="path4209-0-0-2" inkscape:connector-curvature="0"/>
    <text xml:space="preserve" style="font-style:normal;font-weight:normal;font-size:40px;line-height:125%;font-family:Sans;letter-spacing:0px;word-spacing:0px;fill:#000000;fill-opacity:1;stroke:none;stroke-width:1px;stroke-linecap:butt;stroke-linejoin:miter;stroke-opacity:1" x="563.24054" y="335.66373" id="text6828" sodipodi:linespacing="125%"><tspan sodipodi:role="line" id="tspan6830" x="563.24054" y="335.66373">D(s)</tspan></text>
    <text xml:space="preserve" style="font-style:normal;font-weight:normal;font-size:40px;line-height:125%;font-family:Sans;letter-spacing:0px;word-spacing:0px;fill:#000000;fill-opacity:1;stroke:none;stroke-width:1px;stroke-linecap:butt;stroke-linejoin:miter;stroke-opacity:1" x="-390" y="372.36221" id="text6832" sodipodi:linespacing="125%"><tspan sodipodi:role="line" id="tspan6834" x="-390" y="372.36221">W(s)</tspan></text>
    <text xml:space="preserve" style="font-style:normal;font-weight:normal;font-size:40px;line-height:125%;font-family:Sans;letter-spacing:0px;word-spacing:0px;fill:#000000;fill-opacity:1;stroke:none;stroke-width:1px;stroke-linecap:butt;stroke-linejoin:miter;stroke-opacity:1" x="248.57143" y="650.93365" id="text6836" sodipodi:linespacing="125%"><tspan sodipodi:role="line" id="tspan6838" x="248.57143" y="650.93365">Y(s)</tspan></text>
  </g>
</svg>